<?xml version="1.0" encoding="UTF-8" standalone="no"?>
<!-- Created with Inkscape (http://www.inkscape.org/) -->

<svg
   xmlns:dc="http://purl.org/dc/elements/1.1/"
   xmlns:cc="http://creativecommons.org/ns#"
   xmlns:rdf="http://www.w3.org/1999/02/22-rdf-syntax-ns#"
   xmlns:svg="http://www.w3.org/2000/svg"
   xmlns="http://www.w3.org/2000/svg"
   xmlns:xlink="http://www.w3.org/1999/xlink"
   xmlns:sodipodi="http://sodipodi.sourceforge.net/DTD/sodipodi-0.dtd"
   xmlns:inkscape="http://www.inkscape.org/namespaces/inkscape"
   width="48"
   height="48"
   id="svg2"
   version="1.1"
   inkscape:version="0.48.3.1 r9886"
   sodipodi:docname="skier_start05.svg"
   inkscape:export-filename="xmas_skier_start05.png"
   inkscape:export-xdpi="60"
   inkscape:export-ydpi="60">
  <defs
     id="defs4">
    <inkscape:perspective
       sodipodi:type="inkscape:persp3d"
       inkscape:vp_x="0 : 526.18109 : 1"
       inkscape:vp_y="0 : 1000 : 0"
       inkscape:vp_z="744.09448 : 526.18109 : 1"
       inkscape:persp3d-origin="372.04724 : 350.78739 : 1"
       id="perspective10" />
  </defs>
  <sodipodi:namedview
     id="base"
     pagecolor="#ffffff"
     bordercolor="#666666"
     borderopacity="1.0"
     inkscape:pageopacity="0.0"
     inkscape:pageshadow="2"
     inkscape:zoom="19.354167"
     inkscape:cx="24"
     inkscape:cy="24"
     inkscape:document-units="px"
     inkscape:current-layer="layer1"
     showgrid="true"
     inkscape:window-width="1920"
     inkscape:window-height="1124"
     inkscape:window-x="0"
     inkscape:window-y="24"
     inkscape:window-maximized="1">
    <inkscape:grid
       type="xygrid"
       id="grid2816"
       empspacing="5"
       visible="true"
       enabled="true"
       snapvisiblegridlinesonly="true" />
  </sodipodi:namedview>
  <metadata
     id="metadata7">
    <rdf:RDF>
      <cc:Work
         rdf:about="">
        <dc:format>image/svg+xml</dc:format>
        <dc:type
           rdf:resource="http://purl.org/dc/dcmitype/StillImage" />
        <dc:title></dc:title>
      </cc:Work>
    </rdf:RDF>
  </metadata>
  <g
     inkscape:label="Layer 1"
     inkscape:groupmode="layer"
     id="layer1"
     transform="translate(0,-1004.3622)">
    <path
       style="fill:#000000;fill-opacity:1;stroke:none"
       d="m 17,1012.3622 4,0 c 0,0 0,21 0,25 0,2 0,8 -2,8 -2,0 -2,-6 -2,-8 0,-4 0,-25 0,-25 z"
       id="path2818"
       sodipodi:nodetypes="cccccc" />
    <use
       x="0"
       y="0"
       xlink:href="#path2818"
       id="use2820"
       transform="translate(11,0)"
       width="48"
       height="48" />
    <path
       sodipodi:type="arc"
       style="opacity:0.9;fill:#ff0000;fill-opacity:1;fill-rule:nonzero;stroke:none"
       id="path3615"
       sodipodi:cx="18.5"
       sodipodi:cy="21.5"
       sodipodi:rx="1.5"
       sodipodi:ry="2.5"
       d="M 20,21.5 C 20,22.880712 19.328427,24 18.5,24 17.671573,24 17,22.880712 17,21.5 17,20.119288 17.671573,19 18.5,19 c 0.828427,0 1.5,1.119288 1.5,2.5 z"
       transform="matrix(1.3333333,0,0,1,-5.6666667,1004.3622)" />
    <use
       x="0"
       y="0"
       xlink:href="#path3615"
       id="use3619"
       transform="translate(11.000001,0)"
       width="48"
       height="48" />
    <path
       sodipodi:type="arc"
       style="opacity:0.9;fill:#1e00ff;fill-opacity:1;fill-rule:nonzero;stroke:none"
       id="path3621"
       sodipodi:cx="24.5"
       sodipodi:cy="20.5"
       sodipodi:rx="7.5"
       sodipodi:ry="1.5"
       d="M 32,20.5 C 32,21.328427 28.642136,22 24.5,22 20.357864,22 17,21.328427 17,20.5 17,19.671573 20.357864,19 24.5,19 c 4.142136,0 7.5,0.671573 7.5,1.5 z"
       transform="matrix(1,0,0,1.6666658,0,990.69555)" />
    <path
       sodipodi:type="arc"
       style="opacity:0.90000000000000002;fill:#00f4ff;fill-opacity:1;fill-rule:nonzero;stroke:none"
       id="path3617"
       sodipodi:cx="27"
       sodipodi:cy="24"
       sodipodi:rx="3"
       sodipodi:ry="3"
       d="m 30,24 c 0,1.656854 -1.343146,3 -3,3 -1.656854,0 -3,-1.343146 -3,-3 0,-1.656854 1.343146,-3 3,-3 1.656854,0 3,1.343146 3,3 z"
       transform="matrix(1.1666667,0,0,1.1666667,-7,996.8622)" />
    <path
       sodipodi:nodetypes="ccccccccccccc"
       id="use3646"
       d="m 35,1012.3622 0,1.8582 -1,0 0,1.8581 1,0 0,9.2908 2,0 0,-9.2908 1,0 0,-1.8581 -1,0 0,-1.8582 -2,0 z"
       style="opacity:0.9;fill:#000000;fill-opacity:1;fill-rule:nonzero;stroke:none" />
    <path
       transform="matrix(0.88858453,-0.02973234,0.35119442,1.2336734,13.09301,1001.2537)"
       d="m 19,20 c 0,0.552285 -2.014719,1 -4.5,1 -2.485281,0 -4.5,-0.447715 -4.5,-1 0,-0.552285 2.014719,-1 4.5,-1 2.485281,0 4.5,0.447715 4.5,1 z"
       sodipodi:ry="1"
       sodipodi:rx="4.5"
       sodipodi:cy="20"
       sodipodi:cx="14.5"
       id="use3625"
       style="opacity:0.9;fill:#1e00ff;fill-opacity:1;fill-rule:nonzero;stroke:none"
       sodipodi:type="arc" />
    <path
       sodipodi:nodetypes="ccccccccccccc"
       id="use2837"
       d="m 13.998826,1012.3622 0,1.8582 1,0 0,1.8581 -1,0 0,9.2908 -2,0 0,-9.2908 -1,0 0,-1.8581 1,0 0,-1.8582 2,0 z"
       style="opacity:0.9;fill:#000000;fill-opacity:1;fill-rule:nonzero;stroke:none" />
    <path
       transform="matrix(-0.88858453,-0.02973234,-0.35119442,1.2336734,35.90583,1001.2537)"
       d="m 19,20 c 0,0.552285 -2.014719,1 -4.5,1 -2.485281,0 -4.5,-0.447715 -4.5,-1 0,-0.552285 2.014719,-1 4.5,-1 2.485281,0 4.5,0.447715 4.5,1 z"
       sodipodi:ry="1"
       sodipodi:rx="4.5"
       sodipodi:cy="20"
       sodipodi:cx="14.5"
       id="use2839"
       style="opacity:0.9;fill:#1e00ff;fill-opacity:1;fill-rule:nonzero;stroke:none"
       sodipodi:type="arc" />
    <g
       id="g3788"
       transform="matrix(0.11534417,0,0,0.11534417,39.709449,896.28495)">
      <path
         transform="matrix(1.0700788,0.34090115,-0.28982773,1.258648,47.36873,1012.5857)"
         d="m -100,110.5 c 0,12.42641 -15.67003,22.5 -35,22.5 -19.32997,0 -35,-10.07359 -35,-22.5 0,-12.426407 15.67003,-22.5 35,-22.5 19.32997,0 35,10.073593 35,22.5 z"
         sodipodi:ry="22.5"
         sodipodi:rx="35"
         sodipodi:cy="110.5"
         sodipodi:cx="-135"
         id="path3007"
         style="fill:#ffffff;fill-opacity:1;fill-rule:nonzero;stroke:#000000;stroke-opacity:1"
         sodipodi:type="arc" />
      <path
         inkscape:connector-curvature="0"
         id="path3002"
         d="m -78.982971,1041.3935 c -3.123224,0.3996 -6.231281,0.9216 -9.311291,1.5966 -3.287285,0.6477 -6.602619,1.2024 -9.821913,2.1694 -2.246305,0.7159 -4.467515,1.5372 -6.561405,2.6602 -2.64798,1.3235 -5.14781,2.9428 -7.73897,4.3811 -8.37303,4.8868 -16.79527,9.684 -25.084,14.7273 -3.05051,1.8878 -5.9747,4.0911 -8.30506,6.9127 -1.64147,1.9208 -2.96901,4.1146 -4.19439,6.3427 -0.79524,1.8098 -1.75588,3.566 -2.1647,5.5307 -0.77305,2.9867 -1.1223,6.1248 -0.79947,9.2105 0.22226,1.7427 0.59373,3.4631 1.17506,5.1151 1.21544,3.7344 3.057,7.2912 5.65208,10.1704 2.0439,2.1651 4.39105,4.0122 6.91892,5.5098 1.83305,1.0589 3.72532,2.0242 5.74536,2.6247 2.13288,0.7226 4.36456,1.0477 6.57928,1.3613 2.73371,0.3527 5.51468,0.1976 8.2234,-0.2911 2.5636,-0.4946 5.04262,-1.4081 7.36551,-2.6432 1.55482,-0.8004 3.03483,-1.7579 4.46318,-2.7845 1.99607,-1.5726 3.77235,-3.4382 5.36157,-5.4504 1.47523,-2.0032 2.711014,-4.1938 3.666345,-6.5183 1.93425,-4.3391 3.563647,-8.8179 5.21414,-13.2813 1.291585,-3.8293 2.737199,-7.5997 4.092904,-11.4045 0.592511,-1.5499 1.159777,-3.1154 1.836318,-4.6267 0.626518,-1.319 1.588125,-2.4319 2.733984,-3.278 2.173287,-1.8328 4.760704,-2.9864 7.325451,-4.0719 2.021545,-0.8733 4.041157,-1.7627 6.143994,-2.4003 1.285519,-0.4316 2.559925,-0.9088 3.736403,-1.6129 0.789341,-0.3844 1.414367,-1.0033 2.057071,-1.6142 0.757701,-0.7555 1.346437,-1.6789 1.839165,-2.6477 0.357243,-0.959 0.71265,-1.9203 0.838913,-2.9532 0.195752,-0.9864 0.08029,-2.0173 -0.338354,-2.9193 -0.258733,-1.2494 -0.781134,-2.4294 -1.535177,-3.4399 -0.72526,-1.1095 -1.512294,-2.2451 -2.659973,-2.9064 -1.085847,-0.7596 -2.262868,-1.3873 -3.517899,-1.7746 -2.152057,-0.7533 -4.3884,-1.2346 -6.631144,-1.5783 -0.765412,-0.098 -1.53366,-0.1892 -2.305302,-0.1158 z"
         style="fill:#ff0000;fill-opacity:1;fill-rule:nonzero;stroke:#000000;stroke-width:0.97967672;stroke-linecap:butt;stroke-linejoin:miter;stroke-miterlimit:4;stroke-opacity:1;stroke-dasharray:none" />
      <path
         transform="matrix(1.4424803,0,0,1.3745062,25.442616,987.32217)"
         d="M -45,45.5 C -45,52.403559 -50.596441,58 -57.5,58 -64.403559,58 -70,52.403559 -70,45.5 -70,38.596441 -64.403559,33 -57.5,33 c 6.903559,0 12.5,5.596441 12.5,12.5 z"
         sodipodi:ry="12.5"
         sodipodi:rx="12.5"
         sodipodi:cy="45.5"
         sodipodi:cx="-57.5"
         id="path3005"
         style="fill:#ffffff;fill-opacity:1;fill-rule:nonzero;stroke:#000000;stroke-width:1.61315966;stroke-linecap:butt;stroke-linejoin:miter;stroke-miterlimit:4;stroke-opacity:1;stroke-dasharray:none"
         sodipodi:type="arc" />
    </g>
  </g>
</svg>
