<?xml version="1.0" encoding="UTF-8" standalone="no"?>
<!-- Created with Inkscape (http://www.inkscape.org/) -->

<svg
   xmlns:dc="http://purl.org/dc/elements/1.1/"
   xmlns:cc="http://creativecommons.org/ns#"
   xmlns:rdf="http://www.w3.org/1999/02/22-rdf-syntax-ns#"
   xmlns:svg="http://www.w3.org/2000/svg"
   xmlns="http://www.w3.org/2000/svg"
   xmlns:xlink="http://www.w3.org/1999/xlink"
   xmlns:sodipodi="http://sodipodi.sourceforge.net/DTD/sodipodi-0.dtd"
   xmlns:inkscape="http://www.inkscape.org/namespaces/inkscape"
   width="48"
   height="48"
   id="svg2"
   version="1.1"
   inkscape:version="0.47 r22583"
   sodipodi:docname="skier_start07.svg"
   inkscape:export-filename="skier7.png"
   inkscape:export-xdpi="60"
   inkscape:export-ydpi="60">
  <defs
     id="defs4">
    <inkscape:perspective
       sodipodi:type="inkscape:persp3d"
       inkscape:vp_x="0 : 526.18109 : 1"
       inkscape:vp_y="0 : 1000 : 0"
       inkscape:vp_z="744.09448 : 526.18109 : 1"
       inkscape:persp3d-origin="372.04724 : 350.78739 : 1"
       id="perspective10" />
  </defs>
  <sodipodi:namedview
     id="base"
     pagecolor="#ffffff"
     bordercolor="#666666"
     borderopacity="1.0"
     inkscape:pageopacity="0.0"
     inkscape:pageshadow="2"
     inkscape:zoom="22.627417"
     inkscape:cx="31.170664"
     inkscape:cy="30.24189"
     inkscape:document-units="px"
     inkscape:current-layer="layer1"
     showgrid="true"
     inkscape:window-width="1920"
     inkscape:window-height="1127"
     inkscape:window-x="0"
     inkscape:window-y="24"
     inkscape:window-maximized="1">
    <inkscape:grid
       type="xygrid"
       id="grid2816"
       empspacing="5"
       visible="true"
       enabled="true"
       snapvisiblegridlinesonly="true" />
  </sodipodi:namedview>
  <metadata
     id="metadata7">
    <rdf:RDF>
      <cc:Work
         rdf:about="">
        <dc:format>image/svg+xml</dc:format>
        <dc:type
           rdf:resource="http://purl.org/dc/dcmitype/StillImage" />
        <dc:title />
      </cc:Work>
    </rdf:RDF>
  </metadata>
  <g
     inkscape:label="Layer 1"
     inkscape:groupmode="layer"
     id="layer1"
     transform="translate(0,-1004.3622)">
    <path
       style="fill:#000000;fill-opacity:1;stroke:none"
       d="m 17,1012.3622 4,0 c 0,0 0,21 0,25 0,2 0,8 -2,8 -2,0 -2,-6 -2,-8 0,-4 0,-25 0,-25 z"
       id="path2818"
       sodipodi:nodetypes="cccccc" />
    <use
       x="0"
       y="0"
       xlink:href="#path2818"
       id="use2820"
       transform="translate(11,0)"
       width="48"
       height="48" />
    <path
       sodipodi:type="arc"
       style="opacity:0.9;fill:#ff0000;fill-opacity:1;fill-rule:nonzero;stroke:none"
       id="path3615"
       sodipodi:cx="18.5"
       sodipodi:cy="21.5"
       sodipodi:rx="1.5"
       sodipodi:ry="2.5"
       d="M 20,21.5 C 20,22.880712 19.328427,24 18.5,24 17.671573,24 17,22.880712 17,21.5 17,20.119288 17.671573,19 18.5,19 c 0.828427,0 1.5,1.119288 1.5,2.5 z"
       transform="matrix(1.3333333,0,0,1,-5.6666667,1004.3622)" />
    <use
       x="0"
       y="0"
       xlink:href="#path3615"
       id="use3619"
       transform="translate(11.000001,0)"
       width="48"
       height="48" />
    <path
       sodipodi:type="arc"
       style="opacity:0.9;fill:#1e00ff;fill-opacity:1;fill-rule:nonzero;stroke:none"
       id="path3621"
       sodipodi:cx="24.5"
       sodipodi:cy="20.5"
       sodipodi:rx="7.5"
       sodipodi:ry="1.5"
       d="M 32,20.5 C 32,21.328427 28.642136,22 24.5,22 20.357864,22 17,21.328427 17,20.5 17,19.671573 20.357864,19 24.5,19 c 4.142136,0 7.5,0.671573 7.5,1.5 z"
       transform="matrix(1,0,0,1.6666658,0,990.69555)" />
    <path
       sodipodi:type="arc"
       style="opacity:0.90000000000000002;fill:#00f4ff;fill-opacity:1;fill-rule:nonzero;stroke:none"
       id="path3617"
       sodipodi:cx="27"
       sodipodi:cy="24"
       sodipodi:rx="3"
       sodipodi:ry="3"
       d="m 30,24 c 0,1.656854 -1.343146,3 -3,3 -1.656854,0 -3,-1.343146 -3,-3 0,-1.656854 1.343146,-3 3,-3 1.656854,0 3,1.343146 3,3 z"
       transform="matrix(1.1666667,0,0,1.1666667,-7,996.8622)" />
    <path
       sodipodi:nodetypes="ccccccccccccc"
       id="use3646"
       d="m 35,1006.3602 0,2.001 -1,0 0,2.001 1,0 0,10.0051 2,0 0,-10.0051 1,0 0,-2.001 -1,0 0,-2.001 -2,0 z"
       style="opacity:0.9;fill:#000000;fill-opacity:1;fill-rule:nonzero;stroke:none" />
    <path
       transform="matrix(0.63706335,-0.62017479,1.0901967,0.67583921,2.869056,1018.379)"
       d="m 19,20 a 4.5,1 0 1 1 -9,0 4.5,1 0 1 1 9,0 z"
       sodipodi:ry="1"
       sodipodi:rx="4.5"
       sodipodi:cy="20"
       sodipodi:cx="14.5"
       id="use3625"
       style="opacity:0.9;fill:#1e00ff;fill-opacity:1;fill-rule:nonzero;stroke:none"
       sodipodi:type="arc" />
    <path
       sodipodi:nodetypes="ccccccccccccc"
       id="use2823"
       d="m 14,1006.3602 0,2.001 1,0 0,2.001 -1,0 0,10.0051 -2,0 0,-10.0051 -1,0 0,-2.001 1,0 0,-2.001 2,0 z"
       style="opacity:0.9;fill:#000000;fill-opacity:1;fill-rule:nonzero;stroke:none" />
    <path
       transform="matrix(-0.63706335,-0.62017479,-1.0901967,0.67583921,46.130744,1018.379)"
       d="m 19,20 a 4.5,1 0 1 1 -9,0 4.5,1 0 1 1 9,0 z"
       sodipodi:ry="1"
       sodipodi:rx="4.5"
       sodipodi:cy="20"
       sodipodi:cx="14.5"
       id="use2825"
       style="opacity:0.9;fill:#1e00ff;fill-opacity:1;fill-rule:nonzero;stroke:none"
       sodipodi:type="arc" />
  </g>
</svg>
